1.391300000000000002e-02 1.300000000000000000e+01
4.847300000000000220e-02 5.100000000000000000e+01
3.328999999999999928e-03 4.400000000000000000e+01
3.864299999999999680e-02 3.700000000000000000e+01
5.181999999999999974e-03 4.000000000000000000e+01
3.813400000000000123e-02 3.100000000000000000e+01
4.726400000000000046e-02 3.100000000000000000e+01
3.125399999999999706e-02 1.300000000000000000e+01
8.810000000000000123e-03 9.000000000000000000e+00
6.752400000000000069e-02 2.600000000000000000e+01
-8.097999999999999296e-03 3.000000000000000000e+00
1.035439999999999972e-01 4.300000000000000000e+01
-9.005000000000000851e-03 1.100000000000000000e+01
9.571999999999999953e-02 8.100000000000000000e+01
-1.054599999999999982e-02 7.300000000000000000e+01
-4.206900000000000000e+04 -4.206900000000000000e+04
4.511799999999999838e-02 1.164000000000000000e+03
-6.295000000000000248e-03 2.000000000000000000e+01
5.607299999999999784e-02 7.500000000000000000e+02
-7.400000000000000328e-03 1.300000000000000000e+01
-6.380000000000000254e-03 5.400000000000000000e+01
7.692499999999999338e-02 1.269000000000000000e+03
1.098770000000000024e-01 9.030000000000000000e+02
-5.316000000000000413e-03 4.900000000000000000e+01
1.410000000000000120e-04 3.100000000000000000e+01
-1.270800000000000055e-02 3.100000000000000000e+01
1.498999999999999985e-02 3.500000000000000000e+01
-1.253400000000000000e-02 5.700000000000000000e+01
-1.381300000000000062e-02 8.200000000000000000e+01
-8.869999999999999846e-04 6.500000000000000000e+01
1.227690000000000031e-01 2.710000000000000000e+02
-1.138499999999999929e-02 6.100000000000000000e+01
7.884900000000000242e-02 4.400000000000000000e+01
-9.941999999999999449e-03 5.000000000000000000e+01
