1.387510000000000132e-01 1.203427999999999942e+00 3.295063999999999993e+00 9.070059999999999789e-01 2.560000000000000142e+01 1.870000000000000000e+02
1.391300000000000002e-02 1.285010000000000041e-01 3.258677000000000046e+00 9.180869999999999864e-01 2.541000000000000014e+01 1.300000000000000000e+01
4.847300000000000220e-02 5.580850000000000533e-01 3.574580999999999786e+00 1.159683999999999937e+00 2.698000000000000043e+01 5.100000000000000000e+01
3.328999999999999928e-03 3.857900000000000218e-02 3.539505000000000123e+00 1.144771999999999901e+00 2.680999999999999872e+01 4.400000000000000000e+01
3.864299999999999680e-02 4.898779999999999801e-01 3.696222000000000119e+00 1.270804999999999962e+00 2.755000000000000071e+01 3.700000000000000000e+01
5.181999999999999974e-03 6.103599999999999998e-02 3.570815000000000072e+00 1.164419000000000093e+00 2.696000000000000085e+01 4.000000000000000000e+01
3.813400000000000123e-02 3.966640000000000166e-01 3.510362000000000204e+00 1.043531999999999904e+00 2.667000000000000171e+01 3.100000000000000000e+01
4.726400000000000046e-02 4.788519999999999999e-01 3.512213000000000029e+00 1.020405999999999924e+00 2.667999999999999972e+01 3.100000000000000000e+01
3.125399999999999706e-02 3.278809999999999780e-01 3.563940999999999804e+00 1.048890000000000100e+00 2.692999999999999972e+01 1.300000000000000000e+01
8.810000000000000123e-03 9.264100000000000112e-02 3.552544000000000146e+00 1.040934000000000026e+00 2.687000000000000099e+01 9.000000000000000000e+00
6.752400000000000069e-02 6.224060000000000148e-01 3.478721999999999870e+00 9.377389999999999892e-01 2.651999999999999957e+01 2.600000000000000000e+01
-8.097999999999999296e-03 -8.622499999999999609e-02 3.543086000000000180e+00 1.046234000000000108e+00 2.682999999999999829e+01 3.000000000000000000e+00
1.035439999999999972e-01 1.051633999999999958e+00 3.605306999999999817e+00 1.049452999999999969e+00 2.712000000000000099e+01 4.300000000000000000e+01
-9.005000000000000851e-03 -9.421300000000000507e-02 3.517222999999999988e+00 1.027757000000000032e+00 2.669999999999999929e+01 1.100000000000000000e+01
9.571999999999999953e-02 1.021992999999999929e+00 3.638831999999999844e+00 1.099081999999999892e+00 2.728000000000000114e+01 8.100000000000000000e+01
-1.054599999999999982e-02 -1.180360000000000020e-01 3.590775999999999968e+00 1.098316000000000070e+00 2.705999999999999872e+01 7.300000000000000000e+01
-4.206900000000000000e+04 -4.206900000000000000e+04 -4.206900000000000000e+04 -4.206900000000000000e+04 -4.206900000000000000e+04 -4.206900000000000000e+04
4.511799999999999838e-02 4.941960000000000242e-01 3.680861999999999856e+00 1.101477000000000039e+00 2.748000000000000043e+01 1.164000000000000000e+03
-6.295000000000000248e-03 -7.665800000000000392e-02 3.750849000000000100e+00 1.195896999999999988e+00 2.780000000000000071e+01 2.000000000000000000e+01
5.607299999999999784e-02 8.961149999999999949e-01 4.259928000000000381e+00 1.609950999999999910e+00 3.000000000000000000e+01 7.500000000000000000e+02
-7.400000000000000328e-03 -1.069289999999999963e-01 4.027581999999999773e+00 1.415947000000000067e+00 2.901999999999999957e+01 1.300000000000000000e+01
-6.380000000000000254e-03 -1.173450000000000049e-01 4.447265999999999941e+00 1.798842999999999970e+00 3.075000000000000000e+01 5.400000000000000000e+01
7.692499999999999338e-02 1.156325000000000047e+00 4.243438000000000265e+00 1.528202999999999978e+00 2.992999999999999972e+01 1.269000000000000000e+03
1.098770000000000024e-01 1.656349000000000071e+00 4.302099000000000117e+00 1.554608999999999908e+00 3.017000000000000171e+01 9.030000000000000000e+02
-5.316000000000000413e-03 -7.156099999999999961e-02 3.995334999999999859e+00 1.320006999999999930e+00 2.889000000000000057e+01 4.900000000000000000e+01
1.410000000000000120e-04 2.043999999999999810e-03 4.035357999999999556e+00 1.423098999999999892e+00 2.905999999999999872e+01 3.100000000000000000e+01
-1.270800000000000055e-02 -1.894109999999999960e-01 4.080830999999999875e+00 1.456660999999999984e+00 2.925000000000000000e+01 3.100000000000000000e+01
1.498999999999999985e-02 2.751700000000000257e-01 4.424724999999999575e+00 1.813188999999999940e+00 3.066000000000000014e+01 3.500000000000000000e+01
-1.253400000000000000e-02 -1.992609999999999937e-01 4.146131999999999707e+00 1.553757999999999972e+00 2.953000000000000114e+01 5.700000000000000000e+01
-1.381300000000000062e-02 -2.327279999999999904e-01 4.252240999999999715e+00 1.644765999999999950e+00 2.996999999999999886e+01 8.200000000000000000e+01
-8.869999999999999846e-04 -1.430999999999999980e-02 4.205244999999999678e+00 1.583701999999999943e+00 2.976999999999999957e+01 6.500000000000000000e+01
1.227690000000000031e-01 1.369801000000000046e+00 3.774572000000000038e+00 1.155473999999999890e+00 2.791000000000000014e+01 2.710000000000000000e+02
-1.138499999999999929e-02 -1.512940000000000118e-01 3.870276000000000050e+00 1.301616000000000106e+00 2.833999999999999986e+01 6.100000000000000000e+01
7.884900000000000242e-02 1.019444999999999935e+00 3.921647000000000105e+00 1.313601999999999936e+00 2.857000000000000028e+01 4.400000000000000000e+01
-9.941999999999999449e-03 -1.322339999999999904e-01 3.878035999999999817e+00 1.303550999999999904e+00 2.837000000000000099e+01 5.000000000000000000e+01
